{
  "metadata": {
    "pagination": {
      "pageSize": 5,
      "currentPage": 3,
      "totalCount": 117686,
      "totalPages": 23538
    },
    "status": [
      {
        "code": 0,
        "message": "success"
      }
    ]
  },
  "result": [
    {
      "name": "ASTEC-10614-breeding location-MET0-2016-2000B-784==>784",
      "title": "30EDUYT",
      "aYear": 2016
    },
    {
      "name": "ASTEC-10614-breeding location-MET0-2016-1999B-600==>600",
      "title": "29EDUYT",
      "aYear": 2016
    },
    {
      "name": "ASTEC-10614-breeding location-MET0-2016-1999B-601==>601",
      "title": "31STIDSN",
      "aYear": 2016
    },
    {
      "name": "ASTEC-10614-breeding location-MET0-2016-1999B-602==>602",
      "title": "31STIDYN",
      "aYear": 2016
    },
    {
      "name": "ASTEC-10614-breeding location-MET0-2016-1998B-645==>645",
      "title": "28EDUYT",
      "aYear": 2016
    }
  ]
}